1687 1840 180
1514 1841 180
1558 1602 167
1284 1698 180
874 945 174
1592 1596 123
310 501 144
1001 1409 182
1739 1773 180
576 1292 182
895 1816 182
1907 1975 175
1643 1960 180
548 840 171
1528 1914 180
784 1819 182
134 1391 182
401 1554 182
976 1920 182
1681 1809 180
377 748 171
1499 1501 48
1855 1983 175
1123 1934 182
959 1467 182
1146 1341 182
1240 1780 180
1644 1864 180
569 1218 182
1382 1416 172
1492 1805 180
853 1237 182
465 980 179
526 1227 182
1956 1977 175
1581 1590 167
1607 1863 180
1097 1278 182
403 1440 182
158 1109 179
270 1941 182
874 1015 174
617 912 179
843 1030 179
1556 1726 180
84 1474 182
82 135 122
1595 1922 180
729 1555 182
1994 1998 51
1646 1952 180
277 1436 182
1725 1855 180
1059 1772 182
1590 1930 180
282 1449 182
293 1556 182
353 1364 182
1315 1410 172
631 838 171
46 1357 182
1862 1964 175
1807 1968 175
275 1336 182
802 1001 179
1250 1892 180
1322 1641 172
1475 1800 180
1469 1687 180
1625 1863 180
25 613 144
1197 1949 180
248 1957 182
1192 1704 180
1727 1804 180
1084 1631 182
344 1073 179
285 1902 182
541 1262 182
553 1199 182
116 1950 182
1806 1910 175
1029 1121 169
1778 1973 175
1331 1847 180
1561 1612 167
971 1378 182
1779 1955 175
236 522 144
351 948 179
1694 1894 180
5 1639 182
762 1731 182
968 1027 156
418 1942 182
1834 1967 175
928 1454 182
1472 1986 180
1139 1298 182
1860 1927 175
517 1998 182
71 1607 182
1369 1657 172
1529 1956 180
1634 1830 180
850 1984 182
1390 1799 180
1622 1704 180
1834 1927 175
929 1159 174
98 858 171
1115 1393 182
11 1885 182
231 1777 182
192 480 144
1779 1876 175
1567 1974 180
42 1594 182
1524 1753 180
911 1847 182
1422 1780 180
1159 1664 182
1942 1968 175
534 1130 179
890 1801 182
896 1359 182
781 1541 182
617 1913 182
871 1238 182
598 1419 182
933 1173 182
1083 1913 182
361 1735 182
207 1414 182
644 1803 182
1986 1995 95
1017 1146 169
314 441 144
1744 1888 175
251 278 123
1555 1864 180
1425 1795 180
1424 1676 180
1980 1985 113
1646 1847 180
909 1004 174
492 897 179
30 587 144
1532 1973 180
1814 1949 175
66 1871 182
333 1398 182
1315 1594 172
1601 1894 180
1073 1097 138
208 1870 182
1402 1919 180
93 1514 182
1869 1992 175
1383 1840 180
1461 1719 180
1299 1877 180
1790 1967 175
551 897 179
142 1741 182
1406 1506 172
114 1412 182
1640 1950 180
1543 1821 180
1819 1895 175
891 1162 182
383 1879 182
1139 1346 182
1460 1656 172
1146 1417 182
610 1336 182
1371 1981 180
1603 1839 180
1716 1940 180
311 708 171
1696 1711 149
1252 1639 177
1839 1962 175
1512 1786 180
100 724 171
1204 1358 177
527 1261 182
695 1160 179
298 1473 182
188 1554 182
582 1896 182
1327 1508 172
647 1169 182
1370 1696 180
845 1145 179
945 1471 182
752 1747 182
1669 1949 180
191 1353 182
1911 1920 175
422 1206 182
559 1131 179
238 1392 182
629 1586 182
513 1629 182
1189 1871 180
165 1058 179
326 437 144
1785 1916 175
1446 1597 172
273 1767 182
1604 1680 180
1983 1984 113
1401 1849 180
261 1181 182
371 909 179
1475 1679 180
549 1794 182
215 1394 182
89 781 171
1174 1449 177
1792 1905 175
1267 1285 133
22 1413 182
886 1896 182
484 1777 182
809 1966 182
49 711 171
980 1203 182
182 1548 182
1556 1840 180
950 1934 182
1647 1695 180
125 1305 182
620 919 179
136 1968 182
383 977 179
1169 1716 180
937 1441 182
1181 1892 180
1160 1799 182
110 825 171
312 1260 182
726 958 179
863 1340 182
1423 1885 180
1693 1847 180
1643 1651 136
1729 1832 180
760 785 153
10572 999999 525
